EESchema Schematic File Version 2
LIBS:power
LIBS:device
LIBS:transistors
LIBS:conn
LIBS:linear
LIBS:regul
LIBS:74xx
LIBS:cmos4000
LIBS:adc-dac
LIBS:memory
LIBS:xilinx
LIBS:microcontrollers
LIBS:dsp
LIBS:microchip
LIBS:analog_switches
LIBS:motorola
LIBS:texas
LIBS:intel
LIBS:audio
LIBS:interface
LIBS:digital-audio
LIBS:philips
LIBS:display
LIBS:cypress
LIBS:siliconi
LIBS:opto
LIBS:atmel
LIBS:contrib
LIBS:valves
LIBS:my-misc-modules
LIBS:my-microcontrollers
LIBS:my-displays
LIBS:my-rotary-encoders
LIBS:my-switches
LIBS:my-reference
LIBS:3.7v-power-supply-cache
EELAYER 25 0
EELAYER END
$Descr A4 11693 8268
encoding utf-8
Sheet 1 1
Title ""
Date ""
Rev ""
Comp ""
Comment1 ""
Comment2 ""
Comment3 ""
Comment4 ""
$EndDescr
$Comp
L LM317AT U4
U 1 1 5DE3F00A
P 6300 1650
F 0 "U4" H 6100 1850 50  0000 C CNN
F 1 "LM317AT" H 6300 1850 50  0000 L CNN
F 2 "Power_Integrations:TO-220" H 6300 1750 50  0001 C CIN
F 3 "" H 6300 1650 50  0000 C CNN
	1    6300 1650
	1    0    0    -1  
$EndComp
$Comp
L C C1
U 1 1 5DE3F050
P 5800 1850
F 0 "C1" H 5825 1950 50  0000 L CNN
F 1 "100nF" H 5825 1750 50  0000 L CNN
F 2 "Capacitors_ThroughHole:C_Rect_L7_W2.5_P5" H 5838 1700 50  0001 C CNN
F 3 "" H 5800 1850 50  0000 C CNN
	1    5800 1850
	1    0    0    -1  
$EndComp
$Comp
L C C4
U 1 1 5DE3F087
P 7200 1850
F 0 "C4" H 7225 1950 50  0000 L CNN
F 1 "1µF" H 7225 1750 50  0000 L CNN
F 2 "Capacitors_ThroughHole:C_Rect_L7_W2.5_P5" H 7238 1700 50  0001 C CNN
F 3 "" H 7200 1850 50  0000 C CNN
	1    7200 1850
	1    0    0    -1  
$EndComp
$Comp
L R R2
U 1 1 5DE3F109
P 6800 1850
F 0 "R2" V 6880 1850 50  0000 C CNN
F 1 "240" V 6800 1850 50  0000 C CNN
F 2 "Resistors_ThroughHole:Resistor_Horizontal_RM10mm" V 6730 1850 50  0001 C CNN
F 3 "" H 6800 1850 50  0000 C CNN
	1    6800 1850
	1    0    0    -1  
$EndComp
$Comp
L R R3
U 1 1 5DE3F189
P 6800 2350
F 0 "R3" V 6880 2350 50  0000 C CNN
F 1 "270" V 6800 2350 50  0000 C CNN
F 2 "Resistors_ThroughHole:Resistor_Horizontal_RM10mm" V 6730 2350 50  0001 C CNN
F 3 "" H 6800 2350 50  0000 C CNN
	1    6800 2350
	1    0    0    -1  
$EndComp
$Comp
L GND #PWR01
U 1 1 5DE3F2F6
P 7400 3800
F 0 "#PWR01" H 7400 3550 50  0001 C CNN
F 1 "GND" H 7400 3650 50  0000 C CNN
F 2 "" H 7400 3800 50  0000 C CNN
F 3 "" H 7400 3800 50  0000 C CNN
	1    7400 3800
	1    0    0    -1  
$EndComp
$Comp
L GND #PWR02
U 1 1 5DE3F32E
P 5800 2200
F 0 "#PWR02" H 5800 1950 50  0001 C CNN
F 1 "GND" H 5800 2050 50  0000 C CNN
F 2 "" H 5800 2200 50  0000 C CNN
F 3 "" H 5800 2200 50  0000 C CNN
	1    5800 2200
	1    0    0    -1  
$EndComp
$Comp
L CONN_01X02 P2
U 1 1 5DE3F370
P 3050 1650
F 0 "P2" H 3050 1800 50  0000 C CNN
F 1 "7.5V" V 3150 1650 50  0000 C CNN
F 2 "myConnectors:NINIGI_NS25-W2P" H 3050 1650 50  0001 C CNN
F 3 "" H 3050 1650 50  0000 C CNN
	1    3050 1650
	-1   0    0    -1  
$EndComp
$Comp
L GND #PWR03
U 1 1 5DE3F430
P 3350 1800
F 0 "#PWR03" H 3350 1550 50  0001 C CNN
F 1 "GND" H 3350 1650 50  0000 C CNN
F 2 "" H 3350 1800 50  0000 C CNN
F 3 "" H 3350 1800 50  0000 C CNN
	1    3350 1800
	1    0    0    -1  
$EndComp
$Comp
L CONN_01X02 P3
U 1 1 5DE3F47A
P 8250 1650
F 0 "P3" H 8250 1800 50  0000 C CNN
F 1 "3.7V" V 8350 1650 50  0000 C CNN
F 2 "myConnectors:NINIGI_NS25-W2P" H 8250 1650 50  0001 C CNN
F 3 "" H 8250 1650 50  0000 C CNN
	1    8250 1650
	1    0    0    -1  
$EndComp
$Comp
L GND #PWR04
U 1 1 5DE3F564
P 7200 2200
F 0 "#PWR04" H 7200 1950 50  0001 C CNN
F 1 "GND" H 7200 2050 50  0000 C CNN
F 2 "" H 7200 2200 50  0000 C CNN
F 3 "" H 7200 2200 50  0000 C CNN
	1    7200 2200
	1    0    0    -1  
$EndComp
$Comp
L GND #PWR05
U 1 1 5DE3F5C9
P 7950 1800
F 0 "#PWR05" H 7950 1550 50  0001 C CNN
F 1 "GND" H 7950 1650 50  0000 C CNN
F 2 "" H 7950 1800 50  0000 C CNN
F 3 "" H 7950 1800 50  0000 C CNN
	1    7950 1800
	1    0    0    -1  
$EndComp
$Comp
L CP C2
U 1 1 5DE3F6CB
P 6300 2350
F 0 "C2" H 6325 2450 50  0000 L CNN
F 1 "10µF" H 6325 2250 50  0000 L CNN
F 2 "Capacitors_ThroughHole:C_Radial_D5_L11_P2" H 6338 2200 50  0001 C CNN
F 3 "" H 6300 2350 50  0000 C CNN
	1    6300 2350
	1    0    0    -1  
$EndComp
$Comp
L GND #PWR06
U 1 1 5DE3F741
P 6300 2600
F 0 "#PWR06" H 6300 2350 50  0001 C CNN
F 1 "GND" H 6300 2450 50  0000 C CNN
F 2 "" H 6300 2600 50  0000 C CNN
F 3 "" H 6300 2600 50  0000 C CNN
	1    6300 2600
	1    0    0    -1  
$EndComp
$Comp
L MCP4725 U5
U 1 1 5DE4604C
P 8350 3550
F 0 "U5" H 8425 3425 60  0000 C CNN
F 1 "MCP4725" H 8425 3300 60  0000 C CNN
F 2 "myModules:MCP4725" H 8850 2950 60  0001 C CNN
F 3 "" H 8850 2950 60  0000 C CNN
	1    8350 3550
	1    0    0    1   
$EndComp
$Comp
L +5V #PWR07
U 1 1 5DE46218
P 7600 3200
F 0 "#PWR07" H 7600 3050 50  0001 C CNN
F 1 "+5V" H 7600 3340 50  0000 C CNN
F 2 "" H 7600 3200 50  0000 C CNN
F 3 "" H 7600 3200 50  0000 C CNN
	1    7600 3200
	1    0    0    -1  
$EndComp
$Comp
L arduino_nano U3
U 1 1 5DE463CF
P 5400 4900
F 0 "U3" H 5700 3850 70  0000 C CNN
F 1 "arduino_nano" H 5700 4100 70  0000 C CNN
F 2 "myMicroControllers:Arduino-nano" H 5700 4850 60  0001 C CNN
F 3 "" H 5400 4900 60  0000 C CNN
	1    5400 4900
	-1   0    0    -1  
$EndComp
$Comp
L GND #PWR08
U 1 1 5DE46AF3
P 8650 5000
F 0 "#PWR08" H 8650 4750 50  0001 C CNN
F 1 "GND" H 8650 4850 50  0000 C CNN
F 2 "" H 8650 5000 50  0000 C CNN
F 3 "" H 8650 5000 50  0000 C CNN
	1    8650 5000
	1    0    0    -1  
$EndComp
$Comp
L +5V #PWR09
U 1 1 5DE46BB3
P 6300 4450
F 0 "#PWR09" H 6300 4300 50  0001 C CNN
F 1 "+5V" H 6300 4590 50  0000 C CNN
F 2 "" H 6300 4450 50  0000 C CNN
F 3 "" H 6300 4450 50  0000 C CNN
	1    6300 4450
	1    0    0    -1  
$EndComp
$Comp
L GND #PWR010
U 1 1 5DE46C1D
P 6300 6200
F 0 "#PWR010" H 6300 5950 50  0001 C CNN
F 1 "GND" H 6300 6050 50  0000 C CNN
F 2 "" H 6300 6200 50  0000 C CNN
F 3 "" H 6300 6200 50  0000 C CNN
	1    6300 6200
	1    0    0    -1  
$EndComp
$Comp
L C C3
U 1 1 5DE46CC8
P 6500 5850
F 0 "C3" H 6525 5950 50  0000 L CNN
F 1 "100nF" H 6525 5750 50  0000 L CNN
F 2 "Capacitors_ThroughHole:C_Rect_L7_W2.5_P5" H 6538 5700 50  0001 C CNN
F 3 "" H 6500 5850 50  0000 C CNN
	1    6500 5850
	1    0    0    -1  
$EndComp
$Comp
L C C5
U 1 1 5DE46E1D
P 7600 3950
F 0 "C5" H 7625 4050 50  0000 L CNN
F 1 "100nF" H 7650 3850 50  0000 L CNN
F 2 "Capacitors_ThroughHole:C_Rect_L7_W2.5_P5" H 7638 3800 50  0001 C CNN
F 3 "" H 7600 3950 50  0000 C CNN
	1    7600 3950
	1    0    0    -1  
$EndComp
$Comp
L GND #PWR011
U 1 1 5DE473FF
P 7600 4200
F 0 "#PWR011" H 7600 3950 50  0001 C CNN
F 1 "GND" H 7600 4050 50  0000 C CNN
F 2 "" H 7600 4200 50  0000 C CNN
F 3 "" H 7600 4200 50  0000 C CNN
	1    7600 4200
	1    0    0    -1  
$EndComp
$Comp
L SSD1306-I2C U2
U 1 1 5DE4771A
P 5200 3450
F 0 "U2" H 5325 3450 60  0000 C CNN
F 1 "SSD1306-I2C" H 5325 3600 60  0000 C CNN
F 2 "myDisplays:SSD1306-128x32-12C" H 5225 3450 60  0001 C CNN
F 3 "" H 5225 3450 60  0000 C CNN
	1    5200 3450
	-1   0    0    1   
$EndComp
$Comp
L +3.3V #PWR012
U 1 1 5DE477E9
P 5900 2700
F 0 "#PWR012" H 5900 2550 50  0001 C CNN
F 1 "+3.3V" H 5900 2840 50  0000 C CNN
F 2 "" H 5900 2700 50  0000 C CNN
F 3 "" H 5900 2700 50  0000 C CNN
	1    5900 2700
	1    0    0    -1  
$EndComp
$Comp
L GND #PWR013
U 1 1 5DE47925
P 6400 3800
F 0 "#PWR013" H 6400 3550 50  0001 C CNN
F 1 "GND" H 6400 3650 50  0000 C CNN
F 2 "" H 6400 3800 50  0000 C CNN
F 3 "" H 6400 3800 50  0000 C CNN
	1    6400 3800
	1    0    0    -1  
$EndComp
$Comp
L Rotary_Encoder_Switch SW1
U 1 1 5DE47AE8
P 5100 6950
F 0 "SW1" H 5100 7210 50  0000 C CNN
F 1 "ALPS-EC11E" H 5100 7300 50  0000 C CNN
F 2 "mySwitches:RotaryEncoder_Alps_EC11E-Switch_Vertical_H20mm" H 5000 7110 50  0001 C CNN
F 3 "" H 5100 7210 50  0001 C CNN
	1    5100 6950
	1    0    0    1   
$EndComp
$Comp
L GND #PWR014
U 1 1 5DE47B79
P 4600 7150
F 0 "#PWR014" H 4600 6900 50  0001 C CNN
F 1 "GND" H 4600 7000 50  0000 C CNN
F 2 "" H 4600 7150 50  0000 C CNN
F 3 "" H 4600 7150 50  0000 C CNN
	1    4600 7150
	-1   0    0    -1  
$EndComp
$Comp
L GND #PWR015
U 1 1 5DE47DC0
P 5650 7150
F 0 "#PWR015" H 5650 6900 50  0001 C CNN
F 1 "GND" H 5650 7000 50  0000 C CNN
F 2 "" H 5650 7150 50  0000 C CNN
F 3 "" H 5650 7150 50  0000 C CNN
	1    5650 7150
	-1   0    0    -1  
$EndComp
$Comp
L R R12
U 1 1 5DE47193
P 8200 5200
F 0 "R12" V 8280 5200 50  0000 C CNN
F 1 "10K" V 8200 5200 50  0000 C CNN
F 2 "Resistors_ThroughHole:Resistor_Horizontal_RM10mm" V 8130 5200 50  0001 C CNN
F 3 "" H 8200 5200 50  0000 C CNN
	1    8200 5200
	1    0    0    -1  
$EndComp
$Comp
L R R10
U 1 1 5DE4726E
P 8000 5150
F 0 "R10" V 8080 5150 50  0000 C CNN
F 1 "10K" V 8000 5150 50  0000 C CNN
F 2 "Resistors_ThroughHole:Resistor_Horizontal_RM10mm" V 7930 5150 50  0001 C CNN
F 3 "" H 8000 5150 50  0000 C CNN
	1    8000 5150
	1    0    0    -1  
$EndComp
$Comp
L R R8
U 1 1 5DE4734F
P 7800 5100
F 0 "R8" V 7880 5100 50  0000 C CNN
F 1 "10K" V 7800 5100 50  0000 C CNN
F 2 "Resistors_ThroughHole:Resistor_Horizontal_RM10mm" V 7730 5100 50  0001 C CNN
F 3 "" H 7800 5100 50  0000 C CNN
	1    7800 5100
	1    0    0    -1  
$EndComp
$Comp
L R R6
U 1 1 5DE473AC
P 7600 5050
F 0 "R6" V 7680 5050 50  0000 C CNN
F 1 "10K" V 7600 5050 50  0000 C CNN
F 2 "Resistors_ThroughHole:Resistor_Horizontal_RM10mm" V 7530 5050 50  0001 C CNN
F 3 "" H 7600 5050 50  0000 C CNN
	1    7600 5050
	1    0    0    -1  
$EndComp
$Comp
L R R7
U 1 1 5DE47567
P 7600 5750
F 0 "R7" V 7680 5750 50  0000 C CNN
F 1 "2K" V 7600 5750 50  0000 C CNN
F 2 "Resistors_ThroughHole:Resistor_Horizontal_RM10mm" V 7530 5750 50  0001 C CNN
F 3 "" H 7600 5750 50  0000 C CNN
	1    7600 5750
	1    0    0    -1  
$EndComp
$Comp
L R R9
U 1 1 5DE475BF
P 7800 5750
F 0 "R9" V 7880 5750 50  0000 C CNN
F 1 "2K" V 7800 5750 50  0000 C CNN
F 2 "Resistors_ThroughHole:Resistor_Horizontal_RM10mm" V 7730 5750 50  0001 C CNN
F 3 "" H 7800 5750 50  0000 C CNN
	1    7800 5750
	1    0    0    -1  
$EndComp
$Comp
L R R11
U 1 1 5DE47612
P 8000 5750
F 0 "R11" V 8080 5750 50  0000 C CNN
F 1 "2K" V 8000 5750 50  0000 C CNN
F 2 "Resistors_ThroughHole:Resistor_Horizontal_RM10mm" V 7930 5750 50  0001 C CNN
F 3 "" H 8000 5750 50  0000 C CNN
	1    8000 5750
	1    0    0    -1  
$EndComp
$Comp
L R R13
U 1 1 5DE47668
P 8200 5750
F 0 "R13" V 8280 5750 50  0000 C CNN
F 1 "2K" V 8200 5750 50  0000 C CNN
F 2 "Resistors_ThroughHole:Resistor_Horizontal_RM10mm" V 8130 5750 50  0001 C CNN
F 3 "" H 8200 5750 50  0000 C CNN
	1    8200 5750
	1    0    0    -1  
$EndComp
$Comp
L GND #PWR016
U 1 1 5DE476C1
P 7900 6100
F 0 "#PWR016" H 7900 5850 50  0001 C CNN
F 1 "GND" H 7900 5950 50  0000 C CNN
F 2 "" H 7900 6100 50  0000 C CNN
F 3 "" H 7900 6100 50  0000 C CNN
	1    7900 6100
	1    0    0    -1  
$EndComp
$Comp
L R R4
U 1 1 5DE483DE
P 7000 3750
F 0 "R4" V 7080 3750 50  0000 C CNN
F 1 "10K" V 7000 3750 50  0000 C CNN
F 2 "Resistors_ThroughHole:Resistor_Horizontal_RM10mm" V 6930 3750 50  0001 C CNN
F 3 "" H 7000 3750 50  0000 C CNN
	1    7000 3750
	1    0    0    -1  
$EndComp
$Comp
L R R5
U 1 1 5DE484AE
P 7000 4250
F 0 "R5" V 7080 4250 50  0000 C CNN
F 1 "10K" V 7000 4250 50  0000 C CNN
F 2 "Resistors_ThroughHole:Resistor_Horizontal_RM10mm" V 6930 4250 50  0001 C CNN
F 3 "" H 7000 4250 50  0000 C CNN
	1    7000 4250
	1    0    0    -1  
$EndComp
$Comp
L +5V #PWR017
U 1 1 5DE48B57
P 3600 2600
F 0 "#PWR017" H 3600 2450 50  0001 C CNN
F 1 "+5V" H 3600 2740 50  0000 C CNN
F 2 "" H 3600 2600 50  0000 C CNN
F 3 "" H 3600 2600 50  0000 C CNN
	1    3600 2600
	1    0    0    -1  
$EndComp
$Comp
L R R1
U 1 1 5DE48BB0
P 3600 2850
F 0 "R1" V 3680 2850 50  0000 C CNN
F 1 "1K" V 3600 2850 50  0000 C CNN
F 2 "Resistors_ThroughHole:Resistor_Horizontal_RM10mm" V 3530 2850 50  0001 C CNN
F 3 "" H 3600 2850 50  0000 C CNN
	1    3600 2850
	1    0    0    -1  
$EndComp
$Comp
L GND #PWR018
U 1 1 5DE48F75
P 3600 3500
F 0 "#PWR018" H 3600 3250 50  0001 C CNN
F 1 "GND" H 3600 3350 50  0000 C CNN
F 2 "" H 3600 3500 50  0000 C CNN
F 3 "" H 3600 3500 50  0000 C CNN
	1    3600 3500
	1    0    0    -1  
$EndComp
$Comp
L TL431LP U1
U 1 1 5DE495A0
P 3600 3300
F 0 "U1" V 3500 3400 50  0000 C CNN
F 1 "TL431LP" V 3500 3100 50  0000 C CNN
F 2 "TO_SOT_Packages_THT:TO-92_Inline_Wide" H 3600 3150 50  0001 C CIN
F 3 "" H 3600 3300 50  0001 C CIN
	1    3600 3300
	0    -1   -1   0   
$EndComp
$Comp
L CONN_01X06 P4
U 1 1 5DE52ED3
P 8950 4650
F 0 "P4" H 8950 5000 50  0000 C CNN
F 1 "ANALOG" V 9050 4650 50  0000 C CNN
F 2 "Pin_Headers:Pin_Header_Straight_1x06" H 8950 4650 50  0001 C CNN
F 3 "" H 8950 4650 50  0000 C CNN
	1    8950 4650
	1    0    0    -1  
$EndComp
$Comp
L R R14
U 1 1 5DE52F9E
P 8400 5250
F 0 "R14" V 8480 5250 50  0000 C CNN
F 1 "10K" V 8400 5250 50  0000 C CNN
F 2 "Resistors_ThroughHole:Resistor_Horizontal_RM10mm" V 8330 5250 50  0001 C CNN
F 3 "" H 8400 5250 50  0000 C CNN
	1    8400 5250
	1    0    0    -1  
$EndComp
$Comp
L R R15
U 1 1 5DE53009
P 8400 5750
F 0 "R15" V 8480 5750 50  0000 C CNN
F 1 "2K" V 8400 5750 50  0000 C CNN
F 2 "Resistors_ThroughHole:Resistor_Horizontal_RM10mm" V 8330 5750 50  0001 C CNN
F 3 "" H 8400 5750 50  0000 C CNN
	1    8400 5750
	1    0    0    -1  
$EndComp
$Comp
L CONN_01X10 P1
U 1 1 5DE53F81
P 3050 4950
F 0 "P1" H 3050 5500 50  0000 C CNN
F 1 "DIGITAL" V 3150 4950 50  0000 C CNN
F 2 "Pin_Headers:Pin_Header_Straight_1x10" H 3050 4950 50  0001 C CNN
F 3 "" H 3050 4950 50  0000 C CNN
	1    3050 4950
	-1   0    0    1   
$EndComp
$Comp
L GND #PWR019
U 1 1 5DE5403F
P 3350 5500
F 0 "#PWR019" H 3350 5250 50  0001 C CNN
F 1 "GND" H 3350 5350 50  0000 C CNN
F 2 "" H 3350 5500 50  0000 C CNN
F 3 "" H 3350 5500 50  0000 C CNN
	1    3350 5500
	1    0    0    -1  
$EndComp
Wire Wire Line
	6800 1700 6800 1600
Wire Wire Line
	6700 1600 8050 1600
Wire Wire Line
	6800 2000 6800 2200
Wire Wire Line
	6800 2100 6300 2100
Wire Wire Line
	6300 1900 6300 2200
Connection ~ 6800 2100
Wire Wire Line
	7400 3600 7400 3800
Wire Wire Line
	5800 2000 5800 2200
Wire Wire Line
	5800 1600 5800 1700
Wire Wire Line
	3250 1600 5900 1600
Connection ~ 5800 1600
Wire Wire Line
	3250 1700 3350 1700
Wire Wire Line
	3350 1700 3350 1800
Connection ~ 6800 1600
Wire Wire Line
	7200 1700 7200 1600
Connection ~ 7200 1600
Wire Wire Line
	7200 2000 7200 2200
Wire Wire Line
	7950 1800 7950 1700
Wire Wire Line
	7950 1700 8050 1700
Connection ~ 6300 2100
Wire Wire Line
	6300 2600 6300 2500
Wire Wire Line
	6800 3300 7700 3300
Wire Wire Line
	7400 3600 7700 3600
Wire Wire Line
	7700 3700 7600 3700
Wire Wire Line
	7600 3200 7600 3800
Wire Wire Line
	7150 5100 7150 3400
Wire Wire Line
	5800 3400 7700 3400
Wire Wire Line
	5800 3500 7700 3500
Wire Wire Line
	7200 3500 7200 5250
Wire Wire Line
	7200 5250 6100 5250
Wire Wire Line
	8650 5000 8650 4400
Wire Wire Line
	8650 4400 8750 4400
Wire Wire Line
	6300 5700 6100 5700
Wire Wire Line
	6300 4450 6300 5700
Wire Wire Line
	6100 6000 6300 6000
Wire Wire Line
	6300 6000 6300 6200
Wire Wire Line
	6300 5600 6500 5600
Wire Wire Line
	6500 5600 6500 5700
Connection ~ 6300 5600
Wire Wire Line
	6500 6000 6500 6100
Wire Wire Line
	6500 6100 6300 6100
Connection ~ 6300 6100
Connection ~ 7600 3700
Wire Wire Line
	7600 4200 7600 4100
Wire Wire Line
	6250 3600 6250 4200
Wire Wire Line
	6250 4200 6100 4200
Connection ~ 7150 3400
Connection ~ 7200 3500
Wire Wire Line
	5800 3600 6250 3600
Wire Wire Line
	5900 2700 5900 3600
Wire Wire Line
	5800 3700 6400 3700
Wire Wire Line
	6400 3300 6400 3800
Wire Wire Line
	3750 7050 4800 7050
Wire Wire Line
	3800 6900 4700 6900
Wire Wire Line
	4700 6900 4700 6850
Wire Wire Line
	4700 6850 4800 6850
Wire Wire Line
	4800 6950 4600 6950
Wire Wire Line
	4600 6950 4600 7150
Wire Wire Line
	5650 7150 5650 7050
Wire Wire Line
	5650 7050 5400 7050
Wire Wire Line
	5400 6850 5500 6850
Wire Wire Line
	5500 6850 5500 6550
Wire Wire Line
	5500 6550 4650 6550
Wire Wire Line
	4650 6550 4650 6750
Wire Wire Line
	4650 6750 3850 6750
Wire Wire Line
	7600 4900 7600 4500
Wire Wire Line
	7600 4500 8750 4500
Wire Wire Line
	8750 4600 7800 4600
Wire Wire Line
	7800 4600 7800 4950
Wire Wire Line
	8000 5000 8000 4700
Wire Wire Line
	8000 4700 8750 4700
Wire Wire Line
	8750 4800 8200 4800
Wire Wire Line
	8200 4800 8200 5050
Wire Wire Line
	7900 6000 7900 6100
Wire Wire Line
	7000 6000 8400 6000
Wire Wire Line
	7600 6000 7600 5900
Wire Wire Line
	8200 6000 8200 5900
Connection ~ 7900 6000
Wire Wire Line
	8000 5900 8000 6000
Connection ~ 8000 6000
Wire Wire Line
	7800 6000 7800 5900
Connection ~ 7800 6000
Wire Wire Line
	7600 5200 7600 5600
Wire Wire Line
	7800 5250 7800 5600
Wire Wire Line
	8000 5300 8000 5600
Wire Wire Line
	8200 5350 8200 5600
Wire Wire Line
	7600 5300 7450 5300
Wire Wire Line
	7450 5300 7450 4650
Connection ~ 7600 5300
Wire Wire Line
	7400 4800 7400 5350
Wire Wire Line
	7400 5350 7800 5350
Connection ~ 7800 5350
Wire Wire Line
	8000 5400 7350 5400
Wire Wire Line
	7350 5400 7350 4950
Connection ~ 8000 5400
Wire Wire Line
	7300 5400 7300 5450
Wire Wire Line
	7300 5450 8200 5450
Connection ~ 8200 5450
Wire Wire Line
	7000 4400 7000 6000
Connection ~ 7600 6000
Wire Wire Line
	7000 3900 7000 4100
Wire Wire Line
	6900 4000 7000 4000
Connection ~ 7000 4000
Connection ~ 7000 1600
Wire Wire Line
	3600 3000 3600 3200
Wire Wire Line
	3600 2700 3600 2600
Wire Wire Line
	3600 3400 3600 3500
Wire Wire Line
	3400 3100 6200 3100
Wire Wire Line
	3400 3100 3400 3300
Wire Wire Line
	3400 3300 3500 3300
Connection ~ 3600 3100
Wire Wire Line
	6200 3100 6200 4350
Wire Wire Line
	6200 4350 6100 4350
Wire Wire Line
	8400 5400 8400 5600
Wire Wire Line
	8400 6000 8400 5900
Connection ~ 8200 6000
Wire Wire Line
	8400 5500 7300 5500
Wire Wire Line
	7300 5500 7300 5550
Wire Wire Line
	7300 5550 6100 5550
Connection ~ 8400 5500
Wire Wire Line
	6100 5100 7150 5100
Wire Wire Line
	7300 5400 6100 5400
Wire Wire Line
	7450 4650 6100 4650
Wire Wire Line
	6100 4800 7400 4800
Wire Wire Line
	7350 4950 6100 4950
Wire Wire Line
	6900 4000 6900 4500
Wire Wire Line
	6900 4500 6100 4500
Wire Wire Line
	8400 5100 8400 4900
Wire Wire Line
	8400 4900 8750 4900
Wire Wire Line
	3250 5400 3350 5400
Wire Wire Line
	3350 5400 3350 5500
Wire Wire Line
	3850 6750 3850 5250
Wire Wire Line
	3850 5250 4050 5250
Wire Wire Line
	3800 6900 3800 5400
Wire Wire Line
	3800 5400 4050 5400
Wire Wire Line
	3750 7050 3750 5550
Wire Wire Line
	3750 5550 4050 5550
Wire Wire Line
	4050 5100 3800 5100
Wire Wire Line
	3800 5100 3800 5300
Wire Wire Line
	3800 5300 3250 5300
Wire Wire Line
	3250 5200 3750 5200
Wire Wire Line
	3750 5200 3750 4950
Wire Wire Line
	3750 4950 4050 4950
Wire Wire Line
	4050 4800 3700 4800
Wire Wire Line
	3700 4800 3700 5100
Wire Wire Line
	3700 5100 3250 5100
Wire Wire Line
	4050 4650 3650 4650
Wire Wire Line
	3650 4650 3650 5000
Wire Wire Line
	3650 5000 3250 5000
Wire Wire Line
	3250 4900 3600 4900
Wire Wire Line
	3600 4900 3600 4500
Wire Wire Line
	3600 4500 4050 4500
Wire Wire Line
	3250 4800 3550 4800
Wire Wire Line
	3550 4800 3550 4350
Wire Wire Line
	3550 4350 4050 4350
Wire Wire Line
	4050 4200 3500 4200
Wire Wire Line
	3500 4200 3500 4700
Wire Wire Line
	3500 4700 3250 4700
Wire Wire Line
	3250 4600 3450 4600
Wire Wire Line
	3450 4600 3450 4050
Wire Wire Line
	3450 4050 4050 4050
Wire Wire Line
	6100 4050 6150 4050
Wire Wire Line
	6150 4050 6150 3850
Wire Wire Line
	6150 3850 3400 3850
Wire Wire Line
	3400 3850 3400 4500
Wire Wire Line
	3400 4500 3250 4500
$Comp
L HEATSINK HS1
U 1 1 5DE557A1
P 6300 1300
F 0 "HS1" H 6300 1500 50  0000 C CNN
F 1 "HEATSINK" H 6300 1250 50  0000 C CNN
F 2 "myHeatSinks:HEAT-SINK-TO220-42x25x38" H 6300 1300 50  0001 C CNN
F 3 "" H 6300 1300 50  0000 C CNN
	1    6300 1300
	1    0    0    -1  
$EndComp
$Comp
L C C6
U 1 1 5DE56FF8
P 6400 3150
F 0 "C6" H 6425 3250 50  0000 L CNN
F 1 "100nF" H 6450 3050 50  0000 L CNN
F 2 "Capacitors_ThroughHole:C_Rect_L7_W2.5_P5" H 6438 3000 50  0001 C CNN
F 3 "" H 6400 3150 50  0000 C CNN
	1    6400 3150
	1    0    0    -1  
$EndComp
Connection ~ 6400 3700
Wire Wire Line
	6400 3000 6400 2850
Wire Wire Line
	6400 2850 5900 2850
Connection ~ 5900 2850
Connection ~ 5900 3600
Wire Wire Line
	6800 2500 6800 3300
Wire Wire Line
	7000 3600 7000 1600
$Comp
L LM78L05ACZ U6
U 1 1 5DE63266
P 4500 2150
F 0 "U6" H 4300 2350 50  0000 C CNN
F 1 "LM78L05ACZ" H 4400 2350 50  0000 L CNN
F 2 "TO_SOT_Packages_THT:TO-92_Inline_Wide" H 4500 2250 50  0001 C CIN
F 3 "" H 4500 2150 50  0000 C CNN
	1    4500 2150
	1    0    0    -1  
$EndComp
Wire Wire Line
	4100 2100 4000 2100
Wire Wire Line
	4000 1600 4000 2200
Connection ~ 4000 1600
$Comp
L C C7
U 1 1 5DE63646
P 4000 2350
F 0 "C7" H 4025 2450 50  0000 L CNN
F 1 "470nF" H 4025 2250 50  0000 L CNN
F 2 "Capacitors_ThroughHole:C_Rect_L7_W2.5_P5" H 4038 2200 50  0001 C CNN
F 3 "" H 4000 2350 50  0000 C CNN
	1    4000 2350
	1    0    0    -1  
$EndComp
Connection ~ 4000 2100
$Comp
L GND #PWR020
U 1 1 5DE63917
P 4000 2600
F 0 "#PWR020" H 4000 2350 50  0001 C CNN
F 1 "GND" H 4000 2450 50  0000 C CNN
F 2 "" H 4000 2600 50  0000 C CNN
F 3 "" H 4000 2600 50  0000 C CNN
	1    4000 2600
	1    0    0    -1  
$EndComp
Wire Wire Line
	4000 2600 4000 2500
$Comp
L C C8
U 1 1 5DE63AC8
P 5000 2350
F 0 "C8" H 5025 2450 50  0000 L CNN
F 1 "100nF" H 5025 2250 50  0000 L CNN
F 2 "Capacitors_ThroughHole:C_Rect_L7_W2.5_P5" H 5038 2200 50  0001 C CNN
F 3 "" H 5000 2350 50  0000 C CNN
	1    5000 2350
	1    0    0    -1  
$EndComp
Wire Wire Line
	5000 2000 5000 2200
Wire Wire Line
	5000 2100 4900 2100
$Comp
L +5V #PWR021
U 1 1 5DE63CC9
P 5000 2000
F 0 "#PWR021" H 5000 1850 50  0001 C CNN
F 1 "+5V" H 5000 2140 50  0000 C CNN
F 2 "" H 5000 2000 50  0000 C CNN
F 3 "" H 5000 2000 50  0000 C CNN
	1    5000 2000
	1    0    0    -1  
$EndComp
Connection ~ 5000 2100
$Comp
L GND #PWR022
U 1 1 5DE63E8A
P 4500 2500
F 0 "#PWR022" H 4500 2250 50  0001 C CNN
F 1 "GND" H 4500 2350 50  0000 C CNN
F 2 "" H 4500 2500 50  0000 C CNN
F 3 "" H 4500 2500 50  0000 C CNN
	1    4500 2500
	1    0    0    -1  
$EndComp
Wire Wire Line
	4500 2500 4500 2400
$Comp
L GND #PWR023
U 1 1 5DE63FD8
P 5000 2600
F 0 "#PWR023" H 5000 2350 50  0001 C CNN
F 1 "GND" H 5000 2450 50  0000 C CNN
F 2 "" H 5000 2600 50  0000 C CNN
F 3 "" H 5000 2600 50  0000 C CNN
	1    5000 2600
	1    0    0    -1  
$EndComp
Wire Wire Line
	5000 2600 5000 2500
$Comp
L CP C9
U 1 1 5DE656A8
P 5500 1850
F 0 "C9" H 5525 1950 50  0000 L CNN
F 1 "10µF" H 5525 1750 50  0000 L CNN
F 2 "Capacitors_ThroughHole:C_Radial_D5_L11_P2" H 5538 1700 50  0001 C CNN
F 3 "" H 5500 1850 50  0000 C CNN
	1    5500 1850
	1    0    0    -1  
$EndComp
$Comp
L CP C10
U 1 1 5DE6573A
P 7500 1850
F 0 "C10" H 7525 1950 50  0000 L CNN
F 1 "10µF" H 7525 1750 50  0000 L CNN
F 2 "Capacitors_ThroughHole:C_Radial_D5_L11_P2" H 7538 1700 50  0001 C CNN
F 3 "" H 7500 1850 50  0000 C CNN
	1    7500 1850
	1    0    0    -1  
$EndComp
Wire Wire Line
	7200 2100 7500 2100
Wire Wire Line
	7500 2100 7500 2000
Connection ~ 7200 2100
Wire Wire Line
	7500 1700 7500 1600
Connection ~ 7500 1600
Wire Wire Line
	5500 1700 5500 1600
Connection ~ 5500 1600
Wire Wire Line
	5800 2100 5500 2100
Wire Wire Line
	5500 2100 5500 2000
Connection ~ 5800 2100
Text Notes 7500 2550 0    60   ~ 0
Can use LM317 (1.5A) or LD1085 (3A)\nLM317 : C1 = 100nF + C4 = 1µF\nLD1085 : C9 = 10µF + C10 = 10µF
$EndSCHEMATC
