Reference, Value, Footprint, Datasheet
"U4","LM317AT","Power_Integrations:TO-220","","",""
"C1","100nF","Capacitors_ThroughHole:C_Rect_L7_W2.5_P5","","",""
"C4","1µF","Capacitors_ThroughHole:C_Rect_L7_W2.5_P5","","",""
"R2","240","Resistors_ThroughHole:Resistor_Horizontal_RM10mm","","",""
"R3","270","Resistors_ThroughHole:Resistor_Horizontal_RM10mm","","",""
"P2","7.5V","myConnectors:NINIGI_NS25-W2P","","",""
"P3","3.7V","myConnectors:NINIGI_NS25-W2P","","",""
"C2","10µF","Capacitors_ThroughHole:C_Radial_D5_L11_P2","","",""
"U5","MCP4725","myModules:MCP4725","","",""
"U3","arduino_nano","myMicroControllers:Arduino-nano","","",""
"C3","100nF","Capacitors_ThroughHole:C_Rect_L7_W2.5_P5","","",""
"C5","100nF","Capacitors_ThroughHole:C_Rect_L7_W2.5_P5","","",""
"U2","SSD1306-I2C","myDisplays:SSD1306-128x32-12C","","",""
"SW1","ALPS-EC11E","mySwitches:RotaryEncoder_Alps_EC11E-Switch_Vertical_H20mm","","",""
"R12","10K","Resistors_ThroughHole:Resistor_Horizontal_RM10mm","","",""
"R10","10K","Resistors_ThroughHole:Resistor_Horizontal_RM10mm","","",""
"R8","10K","Resistors_ThroughHole:Resistor_Horizontal_RM10mm","","",""
"R6","10K","Resistors_ThroughHole:Resistor_Horizontal_RM10mm","","",""
"R7","2K","Resistors_ThroughHole:Resistor_Horizontal_RM10mm","","",""
"R9","2K","Resistors_ThroughHole:Resistor_Horizontal_RM10mm","","",""
"R11","2K","Resistors_ThroughHole:Resistor_Horizontal_RM10mm","","",""
"R13","2K","Resistors_ThroughHole:Resistor_Horizontal_RM10mm","","",""
"R4","10K","Resistors_ThroughHole:Resistor_Horizontal_RM10mm","","",""
"R5","10K","Resistors_ThroughHole:Resistor_Horizontal_RM10mm","","",""
"R1","1K","Resistors_ThroughHole:Resistor_Horizontal_RM10mm","","",""
"U1","TL431LP","TO_SOT_Packages_THT:TO-92_Inline_Wide","","",""
"P4","ANALOG","Pin_Headers:Pin_Header_Straight_1x06","","",""
"R14","10K","Resistors_ThroughHole:Resistor_Horizontal_RM10mm","","",""
"R15","2K","Resistors_ThroughHole:Resistor_Horizontal_RM10mm","","",""
"P1","DIGITAL","Pin_Headers:Pin_Header_Straight_1x10","","",""
"HS1","HEATSINK","myHeatSinks:HEAT-SINK-TO220-42x25x38","","",""
"C6","100nF","Capacitors_ThroughHole:C_Rect_L7_W2.5_P5","","",""
"U6","LM78L05ACZ","TO_SOT_Packages_THT:TO-92_Inline_Wide","","",""
"C7","470nF","Capacitors_ThroughHole:C_Rect_L7_W2.5_P5","","",""
"C8","10nF","Capacitors_ThroughHole:C_Rect_L7_W2.5_P5","","",""
"C9","10µF","Capacitors_ThroughHole:C_Radial_D5_L11_P2","","",""
"C10","10µF","Capacitors_ThroughHole:C_Radial_D5_L11_P2","","",""
